// Vitest Snapshot v1, https://vitest.dev/guide/snapshot.html

exports[`match list component snapshot 1`] = `
<div
  className="_container_08fd59"
  data-testid="list"
>
  <div
    data-testid="search"
  >
    <input
      className="_search_e6ceed"
      onChange={[Function]}
      placeholder="Search Pokemon by Name"
      type="text"
      value=""
    />
  </div>
</div>
`;
